%YAML 1.1
%TAG !u! tag:unity3d.com,2011:
--- !u!1 &5645455193467578013
GameObject:
  m_ObjectHideFlags: 0
  m_CorrespondingSourceObject: {fileID: 0}
  m_PrefabInstance: {fileID: 0}
  m_PrefabAsset: {fileID: 0}
  serializedVersion: 6
  m_Component:
  - component: {fileID: 3656304416878649551}
  - component: {fileID: 6143427759494134575}
  m_Layer: 0
  m_Name: Location 11
  m_TagString: Untagged
  m_Icon: {fileID: 0}
  m_NavMeshLayer: 0
  m_StaticEditorFlags: 0
  m_IsActive: 1
--- !u!4 &3656304416878649551
Transform:
  m_ObjectHideFlags: 0
  m_CorrespondingSourceObject: {fileID: 0}
  m_PrefabInstance: {fileID: 0}
  m_PrefabAsset: {fileID: 0}
  m_GameObject: {fileID: 5645455193467578013}
  m_LocalRotation: {x: 0, y: 0, z: 0, w: 1}
  m_LocalPosition: {x: 0, y: 0, z: 0}
  m_LocalScale: {x: 1, y: 1, z: 1}
  m_Children: []
  m_Father: {fileID: 0}
  m_RootOrder: 0
  m_LocalEulerAnglesHint: {x: 0, y: 0, z: 0}
--- !u!114 &6143427759494134575
MonoBehaviour:
  m_ObjectHideFlags: 0
  m_CorrespondingSourceObject: {fileID: 0}
  m_PrefabInstance: {fileID: 0}
  m_PrefabAsset: {fileID: 0}
  m_GameObject: {fileID: 5645455193467578013}
  m_Enabled: 1
  m_EditorHideFlags: 0
  m_Script: {fileID: 11500000, guid: 776c6593612e24e5a8a7bcf5d4e83cbe, type: 3}
  m_Name: 
  m_EditorClassIdentifier: 
  locationBackground: {fileID: 21300000, guid: ab43c68f17dfd49e4abddb93ab78909e, type: 3}
  firstSideSprite: {fileID: 21300000, guid: 9a3c66d7cb27649a5b756808fe44a264, type: 3}
  secondSideSprite: {fileID: 21300000, guid: 5d96114b58d344e438c0f92c9751d791, type: 3}
  locationPreview: {fileID: 5738732547694290618, guid: f78613a2cb33141b389bc9ab7a011950,
    type: 3}
