﻿{
	"unity": {
		"unity_and_ad_id": "3282352",
		"unity_ios_ad_id": "3282353"
	},
	"applovin": {},
	"facebook": {
		"rewarded_placement_id_ios": "1188589824682261_1188591294682114",
		"rewarded_placement_id_android": "1188589824682261_1188592271348683",
		"interstitial_placement_id_ios": "1188589824682261_1188594731348437",
		"interstitial_placement_id_android": "1188589824682261_1188596084681635"
	},
	"google": {
		"android_app_id": "ca-app-pub-8435425217647994~5272066881",
		"ios_app_id": "ca-app-pub-8435425217647994~1867723082",
		"android_reward_ad_unit_id": "ca-app-pub-8435425217647994/8828168510",
		"ios_reward_ad_unit_id": "ca-app-pub-8435425217647994/6612234568",
		"android_interstitial_ad_unit_id": "ca-app-pub-8435425217647994/4234187501",
		"ios_interstitial_ad_unit_id": "ca-app-pub-8435425217647994/4151616393"
	},
	"ironsrc": {
		"app_key": "..."
	},
	"applovin_max": {
		"sdk_key": "LKOoCe3oeDQ05imV85BSUxM3xqBAC4ZTPyKcbNOEaqFfW_9e5L6ZHTdCHpNUux2IuMvTlIiJ6z-dz8G2UNcmsE",
		"rewarded_placement_id_android": "5bbeeb26c7a22df4",
		"interstitial_placement_id_android": "733f45033a406bcf",
		"rewarded_placement_id_ios": "1e7a72d739d5012b",
		"interstitial_placement_id_ios": "45d1c8c53534a281"
	},
	"rewarded_distribution": {
		"default": {
			"applovin": 0,
			"unity": 10,
			"facebook": 100,
			"google": 50,
			"applovin_max": -1
		},
		"zh": {
			"applovin": 10,
			"unity": 1,
			"facebook": 100,
			"google": 50,
			"applovin_max": -1
		}
	},
	"interstitial_distribution": {
		"default": {
			"applovin": -1,
			"unity": -1,
			"facebook": 100,
			"google": 50,
			"applovin_max": -1
		}
	}
}