﻿{
	"ios_app_store_id": "",
	"ios_app_store_link": "itms-apps://itunes.apple.com/app/id{0}{1}",
	"ios_app_store_review_params": "?action=write-review",

	"android_app_store_link": "",

	"ios_dev_store_id": "",
	"android_dev_store_id": "",

	"privacy_url": "https://blackbears.mobi/legal/us/privacy",
	"terms_url": "https://blackbears.mobi/legal/us/terms",
	"privacy_partners_url": "https://blackbears.mobi/legal/us/privacy_partner",
	"mail_support": "mail@blackbears.mobi",
	"mail_support_subject": "",
	"vk_support_link": "https://vk.com/blackbearsmobi",

	"session_offline_time": 300,

	"included_countries": 
	[ 
		"BE", "BG", "CZ", "DK", "DE", "EE", "IE", "EL", "ES", "FR", 
		"HR", "IT", "CY", "LV", "LT", "LU", "HU", "MT", "NL", "AT", 
		"PL", "PT", "RO", "SI", "SK", "FI", "SE", "UK" 
	]
	
}