%YAML 1.1
%TAG !u! tag:unity3d.com,2011:
--- !u!114 &11400000
MonoBehaviour:
  m_ObjectHideFlags: 0
  m_PrefabParentObject: {fileID: 0}
  m_PrefabInternal: {fileID: 0}
  m_GameObject: {fileID: 0}
  m_Enabled: 1
  m_EditorHideFlags: 0
  m_Script: {fileID: 11500000, guid: 26ed870afb755408f8dab135148dd9ef, type: 3}
  m_Name: ContextMenuBuilderPrefs
  m_EditorClassIdentifier: 
  profileMenuItemPreferences:
    icon: {fileID: 21300000, guid: ba428d7a1acd044ad8cf638c3d98e019, type: 3}
    text: CLANS_PROFILE
    textColor: {r: 0.1254902, g: 0.7019608, b: 0.49803925, a: 1}
  answerMenuItemPreferences:
    icon: {fileID: 21300000, guid: a7e4ea49f667547b980d61e7204b7854, type: 3}
    text: CLANS_ANSWER
    textColor: {r: 0.1254902, g: 0.7019608, b: 0.49803922, a: 1}
  promoteMenuItemPreferences:
    icon: {fileID: 21300000, guid: a89839d61e3e7491caa9c5aede31889b, type: 3}
    text: CLANS_PROMOTE
    textColor: {r: 0.9215687, g: 0.83921576, b: 0.4666667, a: 1}
  demoteMenuItemPreferences:
    icon: {fileID: 21300000, guid: 6a9bfe6bbb3214e7aa100515dc42a5c9, type: 3}
    text: CLANS_DEMOTE
    textColor: {r: 0.92549026, g: 0.52156866, b: 0.3803922, a: 1}
  kickMenuItemPreferences:
    icon: {fileID: 21300000, guid: 49690035a43c34058a2c94a78ededecd, type: 3}
    text: CLANS_KICK
    textColor: {r: 0.90196085, g: 0.29411766, b: 0.23529413, a: 1}
