%YAML 1.1
%TAG !u! tag:unity3d.com,2011:
--- !u!114 &11400000
MonoBehaviour:
  m_ObjectHideFlags: 0
  m_CorrespondingSourceObject: {fileID: 0}
  m_PrefabInstance: {fileID: 0}
  m_PrefabAsset: {fileID: 0}
  m_GameObject: {fileID: 0}
  m_Enabled: 1
  m_EditorHideFlags: 0
  m_Script: {fileID: 11500000, guid: 0c12fa3ba587f4e4a8bde6539cb17f74, type: 3}
  m_Name: _GameCore
  m_EditorClassIdentifier: 
  analytics:
    enabled: 1
    analytics:
    - {fileID: 11400000, guid: cb615f76f89464876a84f85b6b6c1dae, type: 2}
    - {fileID: 11400000, guid: 8e238e6d2d23b4403b171d8f22f79111, type: 2}
    - {fileID: 11400000, guid: 59f6603794c934f1fb2ccf3dd21e7d93, type: 2}
  localization:
    localizator: {fileID: 11400000, guid: 1ba1c3708ac1647b0aede8b902ae2db5, type: 2}
  alerts:
    alertsParams: {fileID: 11400000, guid: ef683d12d0ad44ea0b9315b49605db39, type: 2}
  chronometer:
    enabled: 1
    timeModuleParams: {fileID: 11400000, guid: f62c2fe83d95c4e0dab7b5c025a1b27d, type: 2}
  sqba:
    enabled: 1
    sqbaConfiguration: {fileID: 11400000, guid: e60e1d16e44534419b4b913aab89f57d,
      type: 2}
  appUpdate:
    enabled: 0
  sqbaFiles:
    enabled: 1
    defaultAssets:
    - {fileID: 4900000, guid: 6e43b491319744681b86bf87a03bf569, type: 3}
    - {fileID: 4900000, guid: 46f6b57919aea4167b799cd1216f02d4, type: 3}
    - {fileID: 4900000, guid: 83bb269d5b50c4f6abf9a8dd9f935fc9, type: 3}
    - {fileID: 4900000, guid: fe8143c79efcd446683d94461eab5d1f, type: 3}
    - {fileID: 4900000, guid: ca55f7eda6f794e65a3c64a9447a0f2d, type: 3}
    - {fileID: 4900000, guid: 78dd04ff37c72480cb79bdbd38da176d, type: 3}
    - {fileID: 4900000, guid: a70bdfb6b5b3d48008901841b5087620, type: 3}
    nameOfFolderForEncryptionFiles: _SQBAEnycryptFiles
  coreDefaults:
    configName: core_defaults.json
    softCurrencyIconPack:
      bigIcon: {fileID: 0}
      smallIcon: {fileID: 0}
    hardCurrencyIconPack:
      bigIcon: {fileID: 0}
      smallIcon: {fileID: 7238581764987591171, guid: dab9a68c7c28f4860ab1910fabecb335,
        type: 3}
    scoreIconPack:
      bigIcon: {fileID: 21300000, guid: 48be5ca59edea4a84abf2a80e88436b2, type: 3}
      smallIcon: {fileID: 21300000, guid: 48be5ca59edea4a84abf2a80e88436b2, type: 3}
    subscriptionSprites:
      sprites: []
  gdpr:
    url: https://pro.ip-api.com/json/
    apiKey: LNnxXoQp1TIvyFp
    workWithoutInternet: 1
  rate:
    openRateMinStars: 4
    rateMinSessionTime: 10
    rateMinOnlineTime: 10
    lateMinSpan: 14400
    rateMinSessionsCount: 1
    showOverlayOnAlerts: 0
  ads:
    enabled: 1
    paramsFileName: ads_defaults.json
    settings:
      applovinSdkKey: LKOoCe3oeDQ05imV85BSUxM3xqBAC4ZTPyKcbNOEaqFfW_9e5L6ZHTdCHpNUux2IuMvTlIiJ6z-dz8G2UNcmsE
  referals:
    enabled: 1
    secret: XQQQPX1fvkAVUkO1fevkGNlQpCCLN0L8qQbS
    paramsFileName: ref_defaults.json
  gameServer:
    enabled: 1
    configuration: {fileID: 11400000, guid: 28ae43eaa976e4def83082a6739410e1, type: 2}
    paramsFileName: gs_defaults.json
  bbGames:
    androidUrl: https://promos.qr4.ru/json/15d02284d9dfff40d25861d4493878a8
    iOSUrl: https://promos.qr4.ru/json/71183b618467b82ccb8bb611e4d7232a
    timeoutLoadIcon: 10
  leagues:
    enabled: 1
  clans:
    enabled: 1
    configuration: {fileID: 11400000, guid: 459c39a8d840e487c9e9211439145874, type: 2}
    paramsFileName: clans_defaults.json
  dropItemSystem:
    enabled: 1
    configuration: {fileID: 11400000, guid: 93f6410a0fd8a4ab58e3742709873de9, type: 2}
    tag: Cap
  save:
    salt: GtW+x)=q?-.Ny,0Oh|tf#Gfgqsa*M<BX
    doNotReconnectToTheSaveCloud: 0
  localNotifications:
    enabled: 1
    mode: 2
    autoBadging: 1
