%YAML 1.1
%TAG !u! tag:unity3d.com,2011:
--- !u!221 &22100000
AnimatorOverrideController:
  m_ObjectHideFlags: 0
  m_CorrespondingSourceObject: {fileID: 0}
  m_PrefabInstance: {fileID: 0}
  m_PrefabAsset: {fileID: 0}
  m_Name: BoerController15
  m_Controller: {fileID: 9100000, guid: 5c09ab72ac25f492492969f728989d94, type: 2}
  m_Clips:
  - m_OriginalClip: {fileID: 7400000, guid: 573f022ba25e842ac98dff88c313936c, type: 2}
    m_OverrideClip: {fileID: 7400000, guid: cbc84a136b10f46afb92f82e77bcd24f, type: 2}
